%>% dreams - Filter on conditions for more than one variable at the time
…
if_all():

mtcars %>%
  as_tibble() %>%
  mutate(across(everything(), as.integer)) %>%
  filter(if_any(everything(), ~ . == 0))

# A tibble: 25 × 11
     mpg   cyl  disp    hp  drat    wt  qsec    vs    am  gear  carb
   <int> <int> <int> <int> <int> <int> <int> <int> <int> <int> <int>
 1    21     6   160   110     3     2    16     0     1     4     4
 2    21     6   160   110     3     2    17     0     1     4     4
 3    21     6   258   110     3     3    19     1     0     3     1
 4    18     8   360   175     3     3    17     0     0     3     2
 5    18     6   225   105     2     3    20     1     0     3     1
 6    14     8   360   245     3     3    15     0     0     3     4
 7    24     4   146    62     3     3    20     1     0     4     2
 8    22     4   140    95     3     3    22     1     0     4     2
 9    19     6   167   123     3     3    18     1     0     4     4
10    17     6   167   123     3     3    18     1     0     4     4
# … with 15 more rows
…
